2016-06-28 14:55:41,395 - rootLogger - INFO - All Excel Files Initialised successfully.
2016-06-28 14:55:41,400 - rootLogger - INFO - Param.properties file loaded successfully.
2016-06-28 14:55:41,401 - rootLogger - INFO - Objects.properties file loaded successfully.
2016-06-28 14:55:41,401 - rootLogger - INFO - Execution started for SuiteRegistration.
2016-06-28 14:55:41,623 - rootLogger - INFO - All Excel Files Initialised successfully.
2016-06-28 14:55:41,625 - rootLogger - INFO - Param.properties file loaded successfully.
2016-06-28 14:55:41,626 - rootLogger - INFO - Objects.properties file loaded successfully.
2016-06-28 14:55:41,626 - rootLogger - INFO - SuiteRegistrationCaseReg : Execution started.
2016-06-28 14:55:49,420 - rootLogger - INFO - Firefox Driver Instance loaded successfully.
2016-06-28 14:55:52,731 - rootLogger - INFO - SuiteRegistrationCaseReg : Reporting test case as PASS In excel.
2016-06-28 14:55:52,910 - rootLogger - INFO - All Excel Files Initialised successfully.
2016-06-28 14:55:52,911 - rootLogger - INFO - Param.properties file loaded successfully.
2016-06-28 14:55:52,912 - rootLogger - INFO - Objects.properties file loaded successfully.
2016-06-28 14:55:52,912 - rootLogger - INFO - SuiteRegistrationCaseValidation : Execution started.
2016-06-28 14:56:01,295 - rootLogger - INFO - Firefox Driver Instance loaded successfully.
2016-06-28 14:56:18,896 - rootLogger - INFO - SuiteRegistrationCaseValidation : Reporting test case as PASS In excel.
2016-06-28 14:56:19,187 - rootLogger - INFO - All Excel Files Initialised successfully.
2016-06-28 14:56:19,188 - rootLogger - INFO - Param.properties file loaded successfully.
2016-06-28 14:56:19,191 - rootLogger - INFO - Objects.properties file loaded successfully.
2016-06-28 14:56:19,191 - rootLogger - INFO - Execution started for SuiteLogin.
2016-06-28 14:56:19,230 - rootLogger - INFO - All Excel Files Initialised successfully.
2016-06-28 14:56:19,232 - rootLogger - INFO - Param.properties file loaded successfully.
2016-06-28 14:56:19,233 - rootLogger - INFO - Objects.properties file loaded successfully.
2016-06-28 14:56:28,308 - rootLogger - INFO - Firefox Driver Instance loaded successfully.
2016-06-28 14:56:30,902 - rootLogger - INFO - SuiteLoginCaseValidation : Reporting test case as PASS In excel.
2016-06-28 14:56:31,097 - rootLogger - INFO - All Excel Files Initialised successfully.
2016-06-28 14:56:31,105 - rootLogger - INFO - Param.properties file loaded successfully.
2016-06-28 14:56:31,109 - rootLogger - INFO - Objects.properties file loaded successfully.
2016-06-28 14:56:31,113 - rootLogger - INFO - SuiteLoginCaseLogin : Execution started.
2016-06-28 14:56:40,026 - rootLogger - INFO - Firefox Driver Instance loaded successfully.
2016-06-28 14:56:42,132 - rootLogger - INFO - SuiteLoginCaseLogin : Reporting test data set line 1 as FAIL In excel.
2016-06-28 14:56:42,908 - rootLogger - INFO - SuiteLoginCaseLogin : Reporting test data set line 2 as FAIL In excel.
2016-06-28 14:56:43,743 - rootLogger - INFO - SuiteLoginCaseLogin : Reporting test data set line 3 as PASS In excel.
2016-06-28 14:56:43,770 - rootLogger - INFO - SuiteLoginCaseLogin : Reporting test case as PASS In excel.
2016-06-28 14:56:43,828 - rootLogger - INFO - All Excel Files Initialised successfully.
2016-06-28 14:56:43,830 - rootLogger - INFO - Param.properties file loaded successfully.
2016-06-28 14:56:43,875 - rootLogger - INFO - Objects.properties file loaded successfully.
2016-06-28 14:56:43,881 - rootLogger - INFO - Execution started for SuiteAccount.
2016-06-28 14:56:44,030 - rootLogger - INFO - All Excel Files Initialised successfully.
2016-06-28 14:56:44,032 - rootLogger - INFO - Param.properties file loaded successfully.
2016-06-28 14:56:44,034 - rootLogger - INFO - Objects.properties file loaded successfully.
2016-06-28 14:56:44,035 - rootLogger - INFO - SuiteAccountCaseReset : Execution started.
2016-06-28 14:56:52,635 - rootLogger - INFO - Firefox Driver Instance loaded successfully.
2016-06-28 14:57:12,229 - rootLogger - INFO - SuiteAccountCaseReset : Reporting test case as FAIL In excel.
2016-06-28 14:57:12,257 - rootLogger - INFO - All Excel Files Initialised successfully.
2016-06-28 14:57:12,258 - rootLogger - INFO - Param.properties file loaded successfully.
2016-06-28 14:57:12,260 - rootLogger - INFO - Objects.properties file loaded successfully.
2016-06-28 14:57:12,262 - rootLogger - INFO - SuiteAccountCaseModify : Execution started.
2016-06-28 14:57:21,456 - rootLogger - INFO - Firefox Driver Instance loaded successfully.
2016-06-28 14:57:40,764 - rootLogger - INFO - SuiteAccountCaseModify : Reporting test case as FAIL In excel.
2016-06-28 14:57:40,790 - rootLogger - INFO - All Excel Files Initialised successfully.
2016-06-28 14:57:40,790 - rootLogger - INFO - Param.properties file loaded successfully.
2016-06-28 14:57:40,791 - rootLogger - INFO - Objects.properties file loaded successfully.
2016-06-28 14:57:40,792 - rootLogger - INFO - SuiteAccountCaseModifyPwd : Execution started.
2016-06-28 14:57:50,124 - rootLogger - INFO - Firefox Driver Instance loaded successfully.
2016-06-28 14:58:09,922 - rootLogger - INFO - SuiteAccountCaseModifyPwd : Reporting test case as FAIL In excel.
2016-06-28 14:58:10,164 - rootLogger - INFO - All Excel Files Initialised successfully.
2016-06-28 14:58:10,165 - rootLogger - INFO - Param.properties file loaded successfully.
2016-06-28 14:58:10,171 - rootLogger - INFO - Objects.properties file loaded successfully.
2016-06-28 14:58:10,177 - rootLogger - INFO - SuiteAccountCaseValidation : Execution started.
2016-06-28 14:58:18,698 - rootLogger - INFO - Firefox Driver Instance loaded successfully.
2016-06-28 14:58:38,419 - rootLogger - INFO - SuiteAccountCaseValidation : Reporting test case as FAIL In excel.
2016-06-28 14:58:38,487 - rootLogger - INFO - All Excel Files Initialised successfully.
2016-06-28 14:58:38,490 - rootLogger - INFO - Param.properties file loaded successfully.
2016-06-28 14:58:38,492 - rootLogger - INFO - Objects.properties file loaded successfully.
2016-06-28 14:58:38,493 - rootLogger - INFO - SuiteAccountCaseLogout : Execution started.
2016-06-28 14:58:47,354 - rootLogger - INFO - Firefox Driver Instance loaded successfully.
2016-06-28 14:58:49,521 - rootLogger - INFO - SuiteAccountCaseLogout : Reporting test case as FAIL In excel.
2016-06-28 14:58:49,734 - rootLogger - INFO - All Excel Files Initialised successfully.
2016-06-28 14:58:49,740 - rootLogger - INFO - Param.properties file loaded successfully.
2016-06-28 14:58:49,741 - rootLogger - INFO - Objects.properties file loaded successfully.
2016-06-28 14:58:49,742 - rootLogger - INFO - Execution started for SuiteMessage.
2016-06-28 14:58:49,962 - rootLogger - INFO - All Excel Files Initialised successfully.
2016-06-28 14:58:49,964 - rootLogger - INFO - Param.properties file loaded successfully.
2016-06-28 14:58:49,965 - rootLogger - INFO - Objects.properties file loaded successfully.
2016-06-28 14:58:49,965 - rootLogger - INFO - SuiteMessageCaseSendMessage : Execution started.
2016-06-28 14:58:58,239 - rootLogger - INFO - Firefox Driver Instance loaded successfully.
2016-06-28 15:00:19,199 - rootLogger - INFO - SuiteMessageCaseSendMessage : Reporting test case as FAIL In excel.
